{
    "antifeatures": {
        "Ads": "Esta aplicación contién anuncios",
        "NoSourceSince": "El códigu fonte yá nun ta disponible. Nun va haber más anovamientos",
        "NonFreeAdd": "Esta aplicación da puxu a complementos que nun son llibres",
        "NonFreeAssets": "Esta aplicación contién gráficos y/o música que nun son llibres",
        "NonFreeDep": "Esta aplicación depende d'otres que nun son llibres",
        "NonFreeNet": "Esta aplicación da puxu a servicios de rede que nun son llibres",
        "Tracking": "Esta aplicación rastrexa ya informa de la to actividá",
        "UpstreamNonFree": "El códigu fonte principal nun ye llibre dafechu"
    },
    "index": {
        "download_fdroid": "Baxar F-Droid",
        "gpg_signature": "Robla PGP",
        "introduction": "F-Droid ye un catálogu instalable d'aplicaciones FOSS (software llibre y de códigu abiertu) pa la plataforma d'Android. El veceru acenciella'l restolar, instalar, y facer el siguimientu de los anovamientos nel preséu.",
        "screenshot": "Captura de l'aplicación F-Droid",
        "title": "¿Qué ye F-Droid?"
    },
    "navigation": {
        "about": "Tocante a",
        "browse": "Restolar",
        "contribute": "Collaborar",
        "documentation": "Documentos",
        "forum": "Foru",
        "issues": "Problemes",
        "news": "Noticies"
    },
    "package": {
        "anti_features_warning": "Esta aplicación tien carauterístiques que quiciabes nun te presten.",
        "author": "Autor",
        "changelog": "Rexistru de cambeos",
        "donate": "Donaciones",
        "download": "Baxar {{ file_extension }}",
        "flattr": "Flattr",
        "gpg_signature": "Robla PGP",
        "issue_tracker": "Siguimientu de fallos",
        "liberapay": "Liberapay",
        "license": "Llicencia",
        "minimum_android_version": "Esta versión rique Android {{ android_version }} o más nuevu.",
        "new_in_version": "Nuevo na versión {{ latest_version }}",
        "packages": "Paquetes",
        "permissions": "Permisos",
        "signed_by_developer": "El densendolcador orixinal compilóla y roblolá.",
        "source_code": "Códigu fonte",
        "suggest_downloading_via_fdroid": "Magar que les descargues d'APKs tean disponibles, deberíes tener curiáu al instalar les aplicaciones d'esti mou darréu que nun vas recibir avisos de los anovamientos y ye un mou menos seguru de baxales. Aconseyámoste qu'instales el veceru F-Droid y lu uses.",
        "technical_info": "Información téunica",
        "translation": "Traducción",
        "version_info": "<b>Versión {{ package_version }}</b> ({{ package_version_code }}) - Amestóse'l {{ package_added_date }}",
        "website": "Sitiu web"
    },
    "permissions": {
        "permdesc_activityRecognition": "Esta aplicación pue reconocer la to actividá física.",
        "permdesc_readSms": "Esta aplicación pue lleer tolos SMS atroxaos nel preséu.",
        "permdesc_writeCalendar": "Esta aplicación pue amestar, desaniciar o camudar eventos de calendariu nel preséu. Amás, pue unviar mensaxes que podríen ser de los dueños de los calendarios o camudar eventos ensin avisar a naide.",
        "permgrouplab_activityRecognition": "Actividá física",
        "permgrouplab_calendar": "Calendariu",
        "permgrouplab_calllog": "Rexistros de llamaes",
        "permgrouplab_camera": "Cámara",
        "permgrouplab_contacts": "Contautos",
        "permgrouplab_location": "Allugamientu",
        "permgrouplab_microphone": "Micrófonu",
        "permgrouplab_phone": "Teléfonu",
        "permgrouplab_sensors": "Sensores corporales",
        "permgrouplab_sms": "SMS",
        "permgrouplab_storage": "Almacenamientu",
        "permlab_systemAlertWindow": "Esta aplicación pue apaecer enriba d'otres"
    },
    "sidebars": {
        "donate": {
            "bank_transfer_name": "Nome",
            "bitcoin_alt": "Donar per Bitcoin",
            "flattr_alt": "Donar per Flattr",
            "heading": "Donar",
            "hellotux": "👕 Camisetes 👕 de",
            "hellotux_alt": "HELLOTUX",
            "hellotux_donation": "F-Droid va recibir 3€ per camiseta vendida.",
            "liberapay_alt": "Donar per Liberapay",
            "litecoin_alt": "Donar per Litecoin",
            "paypal_alt": "Donar per PayPal",
            "powered_by_donations": "¡F-Droid caltiense coles tos donaciones!",
            "via_bank_transfer": "Tresferencia bancaria"
        },
        "last_updated": {
            "heading": "Últimu anovamientu"
        },
        "latest_packages": {
            "heading": "Novedaes"
        },
        "news": {
            "heading": "Noticies"
        },
        "search": {
            "heading": "Gueta d'aplicaciones",
            "noscript": "Rique JavaScript p'activase",
            "search": "Guetar"
        }
    }
}
