{
    "antifeatures": {
        "Ads": "Esta aplicación contiene publicidad"
    },
    "index": {
        "download_fdroid": "Descargar F-Droid",
        "gpg_signature": "Firma PGP",
        "introduction": "F-Droid es un catálogo instalable de aplicaciones de software libre y gratuito para la plataforma Android. El cliente facilita navegar, instalar y actualizar aplicaciones en tu dispositivo.",
        "screenshot": "Captura de la aplicación F-Droid para Android",
        "title": "¿Qué es F-Droid?"
    },
    "navigation": {
        "about": "Acerca de",
        "browse": "Navegar",
        "contribute": "Contribuir",
        "documentation": "Documentos",
        "forum": "Foro",
        "issues": "Problemas",
        "news": "Noticias"
    },
    "package": {
        "anti_features": "Características controversiales",
        "anti_features_warning": "Esta aplicación tiene características que podrían no gustarte.",
        "author": "Autor",
        "build_metadata": "Crear metadatos",
        "changelog": "Bitácora de Cambios",
        "donate": "Donar",
        "download": "Descargar {{ file_extension }}",
        "flattr": "Flattr",
        "gpg_signature": "Firma PGP",
        "issue_tracker": "Seguimiento de inconvenientes",
        "liberapay": "Liberapay",
        "license": "Licencia",
        "minimum_android_version": "Esta versión requiere Android {{ android_version }} o más reciente.",
        "new_in_version": "Nuevo en la versión {{ latest_version }}",
        "packages": "Paquetes",
        "permissions": "Permisos",
        "signed_by_developer": "Esta empaquetada y firmada por el desarrollador original.",
        "signed_by_fdroid": "Compilada y firmada por F-Droid, se garantiza que corresponde a <a href=\"{{ source_code_url }}\">este origen tarball</a>.",
        "source_code": "Código fuente",
        "suggest_downloading_via_fdroid": "Aunque las descargas de APK están disponibles debajo para darte la oportunidad de bajarlas, deberías saber que al instalarlas de esa manera no recibirás la notificación de actualizaciones y es una menera menos segura de descargarlas. Recomendamos que instales el cliente de F-droid y lo hagas por ahí.",
        "technical_info": "Información Tecnica",
        "translation": "Traducción",
        "version_info": "<b>Versión {{ package_version }}</b> ({{ package_version_code }}) - Añadido el {{ package_added_date }}",
        "website": "Sitio web"
    },
    "sidebars": {
        "donate": {
            "bank_transfer_name": "Nombre",
            "bitcoin_alt": "Bitcoin",
            "flattr_alt": "Flattr",
            "heading": "Donar",
            "hellotux": "👕 Remeras 👕 de",
            "hellotux_alt": "HELLOTUX",
            "hellotux_donation": "F-Droid recibirá €3 por camiseta vendida.",
            "liberapay_alt": "Donar a través de Liberapay",
            "litecoin_alt": "Donar con Litecoin",
            "paypal_alt": "Donar con PayPal",
            "powered_by_donations": "¡Tus donaciones impulsan a F-Droid!",
            "via_bank_transfer": "Transferencia bancaria"
        },
        "lang": {
            "change": "Cambiar"
        },
        "last_updated": {
            "heading": "Última actualización"
        },
        "latest_packages": {
            "heading": "Últimas apps"
        },
        "news": {
            "heading": "Noticias"
        },
        "search": {
            "heading": "Encontrar Aplicaciones",
            "noscript": "Se necesita que JavaScript este activado",
            "search": "Buscar"
        }
    }
}
